<?xml version="1.0" encoding="utf-8"?>
<!-- Generator: Adobe Illustrator 19.2.1, SVG Export Plug-In . SVG Version: 6.00 Build 0)  -->
<svg version="1.1" id="Layer_1" xmlns="http://www.w3.org/2000/svg" xmlns:xlink="http://www.w3.org/1999/xlink" x="0px" y="0px"
	 viewBox="0 0 118 118" style="enable-background:new 0 0 118 118;" xml:space="preserve">
<style type="text/css">
	.st0{fill:#475993;}
	.st1{fill:#FEFEFE;}
	.st2{fill:#FE6601;}
	.st3{fill:#FE9147;}
	.st4{fill:#FE8534;}
	.st5{fill:#ECECED;}
	.st6{fill:#E6E6E6;}
	.st7{fill:#FE9A57;}
	.st8{fill:#7ACF6D;}
</style>
<g>
	<path class="st8" d="M54.4,0c3,0,6,0,9,0c1.7,0.5,3.5,0.5,5.2,0.8C81.6,3,92.8,8.9,101.8,18.7c12.4,13.5,17.4,29.5,15.2,47.6
		c-1.4,11.3-5.9,21.3-13.3,30c-11.6,13.4-26.3,20.4-44,20.8c-8.9,0.2-17.4-1.7-25.4-5.5c-0.8-0.4-1.6-0.5-2.5-0.3
		c-9.2,2.2-18.4,4.4-27.6,6.6c-2.5,0.6-3.8-0.6-3.3-3.2c1.9-9.3,3.8-18.6,5.8-27.9c0.2-1.1,0.1-2-0.4-3c-5.7-12-7.1-24.6-4.4-37.6
		c5-23.6,24.7-41.9,48.5-45.4C51.7,0.4,53.1,0.5,54.4,0z M59.3,104.3c1.6-0.2,3.6-0.1,5.6-0.4c5.8-0.8,11.2-2.5,16.3-5.3
		c7.7-4.3,13.6-10.3,17.9-17.9c3.9-7,5.8-14.6,5.7-22.6c-0.1-7-1.6-13.7-4.8-20c-3.8-7.5-9.2-13.5-16.3-18.1
		c-6.8-4.4-14.3-6.7-22.4-7.2c-8.6-0.4-16.6,1.4-24.1,5.5c-9,4.9-15.8,12.1-20,21.6C13.3,48.6,12.3,57.7,14,67
		c1,5.4,3.1,10.4,5.7,15.1c0.4,0.8,0.5,1.5,0.3,2.4c-1.1,5.3-2.2,10.5-3.3,15.8c-0.3,1.4-0.2,1.4,1.1,1.1c4.4-1,8.9-2,13.3-3.2
		c2.4-0.7,4.4-0.4,6.6,0.8C44.3,102.6,51.4,104.3,59.3,104.3z"/>
	<path class="st1" d="M59.3,104.3c-7.9,0-15-1.7-21.6-5.3c-2.2-1.2-4.2-1.5-6.6-0.8c-4.4,1.2-8.9,2.1-13.3,3.2
		c-1.3,0.3-1.4,0.3-1.1-1.1c1.1-5.3,2.2-10.5,3.3-15.8c0.2-0.9,0.1-1.6-0.3-2.4C17.1,77.4,15,72.4,14,67c-1.7-9.4-0.7-18.4,3.2-27.1
		c4.2-9.4,10.9-16.6,20-21.6c7.5-4.1,15.6-5.9,24.1-5.5c8.1,0.4,15.6,2.8,22.4,7.2c7.1,4.5,12.5,10.6,16.3,18.1
		c3.2,6.3,4.7,13,4.8,20c0.1,8-1.8,15.6-5.7,22.6c-4.2,7.7-10.2,13.7-17.9,17.9c-5.1,2.8-10.5,4.6-16.3,5.3
		C62.9,104.2,60.9,104.1,59.3,104.3z M74.4,87c2.7,0,5.5-0.3,8-1.8c3-1.7,5.1-4.4,7-7.2c1.9-2.9,0.9-5.9-2.4-6.9
		c-3.5-1.1-7.1-2-10.6-3.1c-1.9-0.5-3.5-0.1-4.8,1.3c-0.8,0.8-1.6,1.7-2.4,2.5c-1.6,1.5-3.2,1.7-5.2,0.7c-2.4-1.2-4.6-2.7-6.6-4.4
		c-4.4-3.5-8.6-7.2-11.8-11.9c-1.3-1.9-1.3-3.6,0.1-5.5c0.7-0.9,1.4-1.8,2.1-2.7c1-1.4,1.2-2.9,0.6-4.5c-1.5-3.6-3.1-7.2-4.8-10.7
		c-1.3-2.8-4.5-3.3-6.8-1.2c-0.7,0.6-1.3,1.2-1.9,1.8c-4,3.9-5.9,8.5-5.1,14.1c0.7,4.6,2.3,8.8,4.9,12.7c6.1,9.2,14,16.5,23.6,22.1
		C63.1,85.1,68.4,86.9,74.4,87z"/>
	<path class="st8" d="M74.4,87c-6,0-11.3-1.9-16.3-4.7c-9.5-5.5-17.5-12.9-23.6-22.1c-2.5-3.8-4.2-8.1-4.9-12.7
		c-0.8-5.7,1.1-10.3,5.1-14.1c0.6-0.6,1.3-1.2,1.9-1.8c2.3-2.1,5.5-1.6,6.8,1.2c1.7,3.5,3.2,7.1,4.8,10.7c0.7,1.6,0.5,3.1-0.6,4.5
		c-0.7,0.9-1.4,1.8-2.1,2.7c-1.4,1.9-1.4,3.6-0.1,5.5c3.2,4.6,7.4,8.4,11.8,11.9c2.1,1.7,4.2,3.2,6.6,4.4c1.9,1,3.6,0.7,5.2-0.7
		c0.8-0.8,1.6-1.6,2.4-2.5c1.4-1.4,3-1.8,4.8-1.3c3.5,1,7.1,2,10.6,3.1c3.3,1,4.3,4,2.4,6.9c-1.9,2.8-4,5.5-7,7.2
		C79.9,86.7,77.1,86.9,74.4,87z"/>
</g>
</svg>
