<?xml version="1.0" encoding="utf-8"?>
<!-- Generator: Adobe Illustrator 19.2.1, SVG Export Plug-In . SVG Version: 6.00 Build 0)  -->
<svg version="1.1" id="Layer_1" xmlns="http://www.w3.org/2000/svg" xmlns:xlink="http://www.w3.org/1999/xlink" x="0px" y="0px"
	 viewBox="0 0 353.6 342.6" style="enable-background:new 0 0 353.6 342.6;" xml:space="preserve">
<style type="text/css">
	.st0{fill:#234093;}
	.st1{fill:#E5A324;stroke:#E5A324;stroke-width:2;stroke-miterlimit:10;}
	.st2{fill:#E5A324;}
	.st3{fill:#FFFFFF;}
	.st4{fill:none;stroke:#E5A324;stroke-width:4;stroke-miterlimit:10;}
	.st5{fill:#E5A324;stroke:#E5A324;stroke-width:4;stroke-miterlimit:10;}
	.st6{fill:#FFFFFF;stroke:#E5A324;stroke-width:4;stroke-miterlimit:10;}
	.st7{fill:none;stroke:#FFFFFF;stroke-width:4;stroke-miterlimit:10;}
	.st8{fill:#FDFDFD;}
	.st9{fill:#E4A224;}
	.st10{fill:#FEFEFE;}
	.st11{fill:#FDFBF7;}
	.st12{fill:#FEFCFA;}
	.st13{fill:#FDFBF8;}
	.st14{fill:#FFFFFF;stroke:#FFFFFF;stroke-width:3;stroke-miterlimit:10;}
	.st15{fill:#E5A324;stroke:#000000;stroke-width:3;stroke-miterlimit:10;}
	.st16{fill:none;stroke:#E5A324;stroke-width:7;stroke-miterlimit:10;}
	.st17{fill:#E5A324;stroke:#E5A324;stroke-width:7;stroke-miterlimit:10;}
	.st18{fill:#FFFFFF;stroke:#E5A324;stroke-width:7;stroke-miterlimit:10;}
</style>
<g>
	<path class="st3" d="M82.4,244.2v4.2c0,1.8-0.3,3.3-1,4.7c-0.7,1.3-1.7,2.4-2.9,3.1c-1.3,0.7-2.7,1.1-4.4,1.1c-1.7,0-3.2-0.3-4.4-1
		c-1.3-0.7-2.3-1.7-3-2.9c-0.7-1.3-1-2.7-1-4.4v-7c0-1.8,0.3-3.3,1-4.7c0.7-1.3,1.7-2.4,2.9-3.1c1.3-0.7,2.7-1.1,4.4-1.1
		c1.4,0,2.6,0.3,3.8,0.9c1.1,0.6,2.1,1.4,2.9,2.5s1.3,2.3,1.6,3.7h-3.6c-0.2-0.8-0.5-1.5-1-2.1c-0.5-0.6-1-1-1.7-1.3
		c-0.6-0.3-1.3-0.4-2-0.4c-1,0-1.8,0.2-2.6,0.7c-0.7,0.5-1.3,1.1-1.7,2s-0.6,1.8-0.6,3v7c0,1,0.2,1.9,0.6,2.7c0.4,0.8,1,1.4,1.8,1.8
		c0.8,0.4,1.6,0.6,2.6,0.6c1,0,1.8-0.2,2.6-0.7s1.3-1.1,1.7-1.9s0.6-1.8,0.6-3v-1h-4.8v-3.2H82.4z"/>
	<path class="st3" d="M87.5,240h3.3v17h-3.3V240z M95.7,243.2c-0.4-0.2-1-0.3-1.6-0.3c-1.1,0-1.9,0.3-2.5,0.9s-0.9,1.4-0.9,2.4
		l-0.3-3.3c0.5-1,1.2-1.8,2-2.4c0.8-0.6,1.7-0.8,2.7-0.8c0.8,0,1.5,0.1,2.1,0.3c0.6,0.2,1.2,0.6,1.6,1l-2.2,2.9
		C96.5,243.7,96.1,243.4,95.7,243.2z"/>
	<path class="st3" d="M102.5,255.9c-1-0.9-1.6-2.2-1.6-3.9c0-1.7,0.5-2.9,1.4-3.8s2.4-1.3,4.3-1.3h4.8l0.2,2.7h-5
		c-0.9,0-1.5,0.2-2,0.6c-0.4,0.4-0.6,1-0.6,1.8c0,0.9,0.3,1.5,0.9,1.9c0.6,0.4,1.4,0.6,2.6,0.6c1.3,0,2.2-0.1,2.9-0.4
		c0.6-0.3,0.9-0.7,0.9-1.3l0.3,2.4c-0.3,0.5-0.7,0.8-1.1,1.1s-0.9,0.5-1.5,0.7c-0.6,0.1-1.2,0.2-1.9,0.2
		C105.1,257.2,103.5,256.8,102.5,255.9z M111.3,246.2c0-1.1-0.3-2-0.9-2.6c-0.6-0.6-1.4-0.9-2.5-0.9c-0.7,0-1.3,0.1-2,0.3
		s-1.2,0.5-1.7,0.9l-2.4-1.7c0.6-0.8,1.5-1.4,2.5-1.8s2.2-0.6,3.5-0.6c1.4,0,2.6,0.2,3.6,0.7c1,0.5,1.8,1.2,2.3,2.2
		c0.5,0.9,0.8,2.1,0.8,3.4V257h-3.2V246.2z"/>
	<path class="st3" d="M119.6,240h3.3v23.9h-3.3V240z M124.4,256.5c-0.8-0.5-1.4-1.2-1.7-2.1l0.2-3.5c0,0.7,0.1,1.4,0.4,1.9
		c0.3,0.5,0.6,0.9,1.1,1.2c0.5,0.3,1.1,0.4,1.8,0.4c1.1,0,2-0.3,2.6-1c0.6-0.7,0.9-1.6,0.9-2.8v-3.7c0-1.2-0.3-2.2-0.9-2.9
		c-0.6-0.7-1.5-1-2.6-1c-0.7,0-1.3,0.1-1.8,0.4c-0.5,0.3-0.9,0.6-1.1,1.2c-0.3,0.5-0.4,1.1-0.4,1.8l-0.3-3.3c0.5-1,1.2-1.8,2-2.3
		c0.8-0.5,1.7-0.8,2.8-0.8c1.2,0,2.2,0.3,3.1,0.8c0.9,0.5,1.5,1.3,2,2.4c0.4,1,0.7,2.3,0.7,3.7v3.7c0,1.4-0.2,2.7-0.7,3.7
		c-0.5,1-1.1,1.8-2,2.3s-1.9,0.8-3.2,0.8C126.1,257.2,125.2,257,124.4,256.5z"/>
	<path class="st3" d="M137.8,233.2h3.3V257h-3.3V233.2z M148.1,246.7c0-1.2-0.3-2.1-0.9-2.8c-0.6-0.7-1.5-1-2.6-1
		c-1.1,0-1.9,0.3-2.5,0.9c-0.6,0.6-0.9,1.4-0.9,2.4l-0.3-3.3c0.5-1,1.2-1.8,2.1-2.3c0.8-0.6,1.8-0.8,2.8-0.8c1.8,0,3.3,0.6,4.3,1.8
		c1,1.2,1.5,2.9,1.5,5.1V257h-3.3V246.7z"/>
	<path class="st3" d="M156.5,233.2h3.3v3.3h-3.3V233.2z M156.5,240h3.3v17h-3.3V240z"/>
	<path class="st3" d="M169.4,257.2c0,0-0.5-0.3-1.6-0.9c-1.1-0.6-1.9-1.4-2.5-2.5c-0.6-1.1-0.9-2.4-0.9-4v-2.8
		c0-1.5,0.3-2.9,0.9-3.9c0.6-1.1,1.4-1.9,2.5-2.5c1.1-0.6,2.4-0.9,4-0.9c0.9,0,1.7,0.1,2.5,0.3s1.5,0.5,2.1,0.9
		c0.6,0.4,1.1,0.9,1.6,1.5l-2.4,2.2c-0.5-0.5-1-1-1.7-1.3c-0.6-0.3-1.3-0.4-2-0.4c-1.3,0-2.3,0.4-3,1.1c-0.7,0.7-1.1,1.7-1.1,3v2.8
		c0,1.3,0.4,2.4,1.1,3.1c0.7,0.7,1.7,1.1,3,1.1c0.7,0,1.4-0.2,2-0.5c0.6-0.3,1.2-0.8,1.7-1.3l2.4,2.3c-0.4,0.6-0.9,1-1.6,1.4
		c-0.6,0.4-1.3,0.7-2.1,0.9c-0.8,0.2-1.6,0.3-2.5,0.3C170.2,257.2,169.4,257.2,169.4,257.2z"/>
	<path class="st3" d="M190.9,233.2h3.3V257h-3.3V233.2z M193.1,253.8h5.4c1.8,0,3.1-0.5,4.1-1.4c1-0.9,1.4-2.2,1.4-3.9v-7
		c0-1.7-0.5-2.9-1.4-3.9c-1-0.9-2.3-1.4-4.1-1.4h-5.4v-3.2h5.3c1.9,0,3.5,0.3,4.9,1s2.4,1.6,3.1,2.9c0.7,1.3,1.1,2.8,1.1,4.6v6.7
		c0,1.8-0.4,3.3-1.1,4.6c-0.7,1.3-1.7,2.2-3.1,2.9c-1.4,0.7-3,1-4.9,1h-5.3V253.8z"/>
	<path class="st3" d="M217.1,257.2c0,0-0.6-0.3-1.7-0.9c-1.1-0.6-2-1.5-2.5-2.6c-0.6-1.1-0.9-2.5-0.9-4.1v-1.9
		c0-1.7,0.3-3.1,0.8-4.3c0.6-1.2,1.4-2.1,2.4-2.7c1.1-0.6,2.4-0.9,3.9-0.9c1.4,0,2.6,0.4,3.6,1.1c1,0.7,1.8,1.7,2.3,3.1
		s0.8,2.9,0.8,4.8v1.1h-11.4v-2.7h8.3c-0.1-1.4-0.5-2.5-1.1-3.2c-0.6-0.8-1.4-1.2-2.5-1.2c-1.3,0-2.2,0.4-2.9,1.2
		c-0.7,0.8-1,2-1,3.5v2.2c0,1.4,0.4,2.5,1.1,3.2c0.7,0.8,1.8,1.1,3.2,1.1c0.7,0,1.3-0.1,2-0.4s1.3-0.7,1.8-1.1l2.2,2.2
		c-0.8,0.8-1.8,1.4-2.8,1.9s-2.1,0.7-3.2,0.7C217.9,257.2,217.1,257.2,217.1,257.2z"/>
	<path class="st3" d="M235,257.2c0,0-0.4-0.1-1.3-0.3c-0.9-0.2-1.7-0.5-2.5-0.9c-0.8-0.4-1.5-0.9-2.1-1.5l2-2.4
		c0.9,0.7,1.8,1.2,2.7,1.6c0.9,0.3,1.8,0.5,2.7,0.5c1.3,0,2.3-0.2,3-0.6c0.7-0.4,1-1,1-1.8c0-0.5-0.2-1-0.5-1.2
		c-0.4-0.3-0.8-0.5-1.3-0.5c-0.5-0.1-1.3-0.2-2.3-0.3c-0.1,0-0.2,0-0.3,0c-0.1,0-0.2,0-0.3,0c0,0-0.1,0-0.1,0c0,0-0.1,0-0.1,0
		c-1.1-0.1-2-0.2-2.8-0.5c-0.8-0.2-1.4-0.7-1.9-1.3c-0.5-0.6-0.8-1.6-0.8-2.8c0-1.2,0.2-2.2,0.7-3c0.5-0.8,1.2-1.4,2.2-1.8
		c1-0.4,2.2-0.6,3.6-0.6c0.9,0,1.7,0.1,2.5,0.2c0.8,0.2,1.6,0.4,2.3,0.7c0.7,0.3,1.4,0.7,2.1,1.2l-2,2.4c-0.9-0.5-1.7-1-2.5-1.2
		c-0.8-0.3-1.6-0.4-2.4-0.4c-1.1,0-2,0.2-2.6,0.6c-0.6,0.4-0.9,1-0.9,1.7c0,0.5,0.2,0.8,0.5,1c0.3,0.2,0.7,0.4,1.2,0.5
		c0.5,0.1,1.2,0.1,2.1,0.2c0.1,0,0.1,0,0.2,0c0.1,0,0.1,0,0.2,0c0,0,0.1,0,0.1,0s0.1,0,0.1,0c1.2,0.1,2.2,0.2,3,0.5
		c0.8,0.2,1.5,0.7,2.1,1.4s0.9,1.7,0.9,3.1c0,1.2-0.3,2.2-0.8,3c-0.5,0.8-1.3,1.4-2.4,1.8c-1.1,0.4-2.4,0.6-4,0.6
		C235.5,257.2,235,257.2,235,257.2z"/>
	<path class="st3" d="M247.9,233.2h3.3v3.3h-3.3V233.2z M247.9,240h3.3v17h-3.3V240z"/>
	<path class="st3" d="M258.5,256.5c-0.9-0.5-1.5-1.3-2-2.4c-0.5-1-0.7-2.3-0.7-3.7v-3.7c0-1.5,0.2-2.7,0.7-3.7c0.4-1,1.1-1.8,2-2.4
		c0.9-0.5,1.9-0.8,3.1-0.8c1,0,1.9,0.3,2.8,0.8s1.5,1.3,2,2.2l-0.3,3.5c0-0.7-0.1-1.3-0.4-1.8s-0.6-0.9-1.1-1.2
		c-0.5-0.3-1.1-0.4-1.8-0.4c-1.1,0-2,0.3-2.6,1c-0.6,0.7-0.9,1.7-0.9,2.9v3.7c0,1.2,0.3,2.2,0.9,2.9s1.5,1,2.6,1
		c0.7,0,1.3-0.1,1.8-0.4c0.5-0.3,0.9-0.7,1.1-1.2c0.3-0.5,0.4-1.1,0.4-1.9l0.2,3.6c-0.3,0.8-0.9,1.5-1.7,2.1
		c-0.8,0.6-1.7,0.9-2.8,0.9C260.4,257.3,259.3,257,258.5,256.5z M260,263.9c0,0-0.5-0.2-1.5-0.7c-1-0.5-1.8-1.1-2.3-2l2.3-2
		c0.4,0.6,1,1.1,1.6,1.4s1.2,0.5,1.9,0.5c1.3,0,2.3-0.4,3-1.1c0.7-0.7,1-1.7,1-3v-17h3.3v16.5c0,1.6-0.3,2.9-0.9,4s-1.4,2-2.5,2.5
		c-1.1,0.6-2.4,0.9-3.9,0.9C260.7,263.9,260,263.9,260,263.9z"/>
	<path class="st3" d="M274.3,240h3.3v17h-3.3V240z M284.6,246.7c0-1.2-0.3-2.1-0.9-2.8c-0.6-0.7-1.5-1-2.6-1c-1.1,0-1.9,0.3-2.5,0.9
		c-0.6,0.6-0.9,1.4-0.9,2.4l-0.3-3.3c0.5-1,1.2-1.8,2.1-2.4c0.8-0.6,1.8-0.8,2.8-0.8c1.8,0,3.3,0.6,4.3,1.8c1,1.2,1.5,2.9,1.5,5.1
		V257h-3.3V246.7z"/>
</g>
<g>
	<path class="st2" d="M170.3,133.3c-9-6.1-9.8,6.1-9.8,6.1L117,185.6l21.7-78.8l44.5-13.6l27.6,27.9l-13.6,44.5l-78.8,21.7
		l46.2-43.5C164.7,143.9,177.2,142.2,170.3,133.3"/>
	<polyline class="st2" points="185.2,91.7 212.5,119.4 236.6,112.8 192,67.8 185.1,91.8 212.5,119.4 	"/>
</g>
</svg>
