<?xml version="1.0" encoding="utf-8"?>
<!-- Generator: Adobe Illustrator 19.2.1, SVG Export Plug-In . SVG Version: 6.00 Build 0)  -->
<svg version="1.1" id="Layer_1" xmlns="http://www.w3.org/2000/svg" xmlns:xlink="http://www.w3.org/1999/xlink" x="0px" y="0px"
	 viewBox="0 0 211.2 170.7" style="enable-background:new 0 0 211.2 170.7;" xml:space="preserve">
<style type="text/css">
	.st0{fill:#56B030;}
	.st1{fill:#942083;}
	.st2{fill:#FFFFFF;}
	.st3{fill:none;}
	.st4{enable-background:new    ;}
	.st5{fill:#E8B038;}
	.st6{fill:#263F8F;}
	.st7{fill:none;stroke:#E8B038;stroke-width:3;stroke-miterlimit:10;}
</style>
<path class="st0" d="M35.7,72c0-1.2,0-2.4,0-3.6c0-12.9,0-25.7,0-38.6c0-1.7,0-3.5,0-5.2c0-7.3,5.2-13.4,12.3-14.5
	c1.3-0.2,2.6-0.3,3.9-0.3c44.7,0,89.5,0,134.2,0c2.4,0,4.8,0.3,7.1,1.3c4.2,1.9,6.9,5,8.3,9.3c0.2,0.6,0.2,1.3,0.6,1.8
	c0.1,0.2,0,0.5,0,0.8c0,12.5,0,25,0,37.6c0,16.4,0,32.8,0,49.1c0,1.1-0.1,2.2-0.5,3.3c-0.5,1.3-0.9,2.7-1.6,3.9
	c-2.2,4-5.5,6.3-9.9,7.1c-1.6,0.3-3.2,0.4-4.8,0.4c-2.9,0-5.8,0.1-8.7,0c-0.4,0-0.9,0-1.3,0.1c-0.6,0.2-1,0.6-1.1,1.2
	c-0.1,0.3-0.1,0.6-0.1,1c0.1,4.9,0,9.8,0,14.7c0,0.7,0,1.5-0.1,2.2c-0.4,2.9-3.9,5-6.9,3.2c-0.7-0.4-1.3-1-1.8-1.5
	c-6.3-6.3-12.6-12.6-18.7-18.9c-1.2-1.3-2.6-1.8-4.4-1.8c-6.7,0-13.3,0-20,0c-0.6,0-1.2,0-1.9,0c-0.2,0-0.5,0-0.7,0
	c-19.7,0-39.4,0-59,0c-2,0-4,0.1-6,0.1c-2,0-4,0.1-6-0.3c-4.2-0.8-7.6-2.8-10.1-6.3c-2.1-3-2.9-6.3-2.9-9.9
	c0.1-6.8,0.1-13.7,0.1-20.5c0-0.1,0-0.3,0-0.4c0-4.2,0-8.4,0-12.5C35.7,73.7,35.7,72.9,35.7,72z M180.8,69.3
	c0-7.1-5.7-13.6-13.6-13.7c-7.9,0-13.7,6.5-13.7,13.6c0,7.5,6.2,13.7,13.6,13.8C174.6,83,180.8,76.7,180.8,69.3z M85.1,69.3
	c0-7.2-5.9-13.7-13.7-13.7c-7.9,0-13.6,6.4-13.7,13.6c0,7.5,6.1,13.7,13.6,13.7C78.9,82.9,85.1,76.8,85.1,69.3z M105.7,69.2
	c-0.1,7.4,6.1,13.7,13.6,13.7c7.4,0,13.7-5.9,13.8-13.5c0.1-7.5-5.9-13.7-13.5-13.8C111.7,55.5,105.8,61.8,105.7,69.2z"/>
<path class="st1" d="M35.7,72c0,0.8,0.1,1.7,0.1,2.5c0,4.2,0,8.4,0,12.5c0,0.1,0,0.3,0,0.4c0,6.8-0.1,13.7-0.1,20.5
	c0,3.6,0.8,6.9,2.9,9.9c2.5,3.5,5.9,5.5,10.1,6.3c2,0.4,4,0.3,6,0.3c2,0,4,0,6-0.1c19.7,0,39.4,0,59,0c0.2,0,0.5,0,0.7,0
	c0.3,0.5,0.4,1.1,0.4,1.6c-0.1,3.7,0,7.3,0,11c0,1.7-0.3,3.4-1,4.9c-1.3,2.9-3.5,4.5-6.6,5.2c-1,0.2-2,0.3-3,0.3
	c-12.5,0-24.9,0-37.4,0c-7.1,0-14.1,0-21.2,0c-1.8,0-3.2,0.6-4.4,1.8c-3.8,3.9-7.6,7.7-11.4,11.5c-0.3,0.3-0.7,0.7-1.1,1
	c-1.8,1.5-4.6,0.3-4.9-2c-0.1-0.6-0.1-1.2-0.1-1.9c0.1-1.6,0-3.3,0-4.9c0-1.3,0-2.6,0-3.8c0-0.2,0-0.4,0-0.6
	c-0.1-0.9-0.4-1.2-1.4-1.2c-2.3,0-4.5,0-6.8,0c-1.6,0-3.2-0.3-4.7-0.9c-1.9-0.8-3.2-2.2-4.2-4c-0.5-0.9-0.8-1.9-1.3-2.8
	c-0.1-0.2-0.1-0.5-0.1-0.8c0-4.6,0-9.1,0-13.7c0-14.9,0-29.8,0-44.6c0-0.7,0.1-1.3,0.4-2c1-2.3,2.3-4.2,4.5-5.4
	c1.6-0.9,3.3-1.3,5.1-1.4c1.1-0.1,2.1,0.1,3.2,0.1c2.4,0,4.9,0,7.3-0.1c0.6,0,1.2-0.2,1.8-0.2C34.4,71.5,35.1,71.6,35.7,72z"/>
<path class="st2" d="M180.8,69.3c0,7.5-6.3,13.7-13.7,13.7c-7.5,0-13.7-6.3-13.6-13.8c0-7,5.8-13.6,13.7-13.6
	C175.1,55.6,180.9,62.2,180.8,69.3z"/>
<path class="st2" d="M85.1,69.3c0,7.5-6.2,13.6-13.7,13.6c-7.5,0-13.7-6.2-13.6-13.7c0-7.2,5.8-13.6,13.7-13.6
	C79.3,55.6,85.1,62.1,85.1,69.3z"/>
<path class="st2" d="M105.7,69.2c0.1-7.3,6-13.6,13.8-13.6c7.6,0.1,13.6,6.3,13.5,13.8C133,77,126.7,83,119.3,82.9
	C111.8,82.9,105.7,76.6,105.7,69.2z"/>
</svg>
