<?xml version="1.0" encoding="utf-8"?>
<!-- Generator: Adobe Illustrator 19.2.1, SVG Export Plug-In . SVG Version: 6.00 Build 0)  -->
<svg version="1.1" id="Layer_1" xmlns="http://www.w3.org/2000/svg" xmlns:xlink="http://www.w3.org/1999/xlink" x="0px" y="0px"
	 viewBox="0 0 1123.9 427" style="enable-background:new 0 0 1123.9 427;" xml:space="preserve">
<g>
	<path d="M230.2,315.9c-35.8,0-71.7,0-107.5,0c-1,0-1.9,0-2.9,0c-4.1-0.1-8.1-4.2-8.1-8.3c0-0.9,0-1.8,0-2.6c0-60.5,0-121,0-181.4
		c0-0.9,0-1.8,0-2.6c0.2-4.3,3.7-8.1,8-8.5c0.9-0.1,1.8-0.1,2.6-0.1c72,0,144,0,216,0c1.5,0,3,0,4.5,0.5c3.6,1.3,5.8,4.3,6,8.2
		c0,0.8,0,1.6,0,2.4c0,60.5,0,121,0,181.4c0,0.9,0,1.8,0,2.6c-0.3,4.7-4,8.3-8.7,8.5c-0.9,0-1.8,0-2.6,0
		C301.7,315.9,265.9,315.9,230.2,315.9z M125.9,257.4c0.8,0.2,1.1-0.3,1.3-0.6c1.2-1.5,2.7-2.7,4.1-4c4.9-4.9,9.8-9.6,14.5-14.6
		c3-3.1,6.1-6.1,9.1-9.2c3.7-3.7,7.2-7.4,11-11c1.1-1,2-2.2,3.2-3.2c3.6-3,7.4-2.9,10.7,0.4c10.7,10.7,21.4,21.3,32.1,32
		c2,2,4.1,4,6.1,6.1c0.6,0.6,1.2,0.7,1.8,0c0.2-0.2,0.5-0.5,0.7-0.7c14.4-14.4,28.7-28.7,43.1-43.1c5.5-5.5,11.1-11,16.6-16.6
		c3.3-3.3,8.2-3.4,11.2,0c2.1,2.3,4.4,4.4,6.6,6.6c4.8,5,9.7,9.9,14.7,14.7c3.1,2.9,6,5.9,9,8.9c3.5,3.6,7.2,7,10.6,10.7
		c0.5,0.6,1,1.3,2,1.1c0.5-1,0.3-2,0.3-3.1c0-33.9,0-67.8,0-101.7c0-0.5,0-1,0-1.4c-0.1-2.1-0.1-2.2-2.1-2.2c-0.2,0-0.5,0-0.7,0
		c-67.8,0-135.5,0-203.3,0c-2.9,0-2.9,0-2.9,2.9c0,41.9,0,83.8,0,125.7C125.8,255.9,125.7,256.7,125.9,257.4z M230.1,301.7
		c33.4,0,66.9,0,100.3,0c0.7,0,1.4,0,2.2,0c2.1-0.1,2.2-0.1,2.2-2.1c0-14,0-28,0-42c0-1.3-0.5-2.3-1.5-3.1c-1.6-1.3-3-2.9-4.4-4.4
		c-2.8-2.8-5.7-5.6-8.4-8.5c-3.4-3.6-7.1-6.9-10.5-10.5c-2.8-2.9-5.7-5.8-8.6-8.6c-3.5-3.5-7-7-10.5-10.5c-1.3-1.3-2.6-2.6-3.9-3.9
		c-0.7-0.6-1.2-0.6-1.8,0.1c-1,1-2,2-3,3.1c-5.9,5.9-11.9,11.8-17.8,17.7c-8.1,8.1-16.2,16.3-24.4,24.4c-4.9,4.9-9.9,9.8-14.7,14.7
		c-3.7,3.8-8,3.8-11.8,0.1c-8.7-8.7-17.4-17.4-26.1-26.1c-3.8-3.8-7.7-7.7-11.5-11.5c-1.1-1.1-1.2-1.1-2.2,0
		c-5.4,5.4-10.8,10.9-16.3,16.2c-3,2.9-5.9,5.9-8.8,8.8c-3.5,3.6-7.2,7.1-10.6,10.7c-3.4,3.6-6.9,7-10.5,10.5
		c-1.1,1.1-1.4,2.2-1.4,3.6c0.1,5.9,0,11.8,0,17.8c0,3.6-0.4,3.4,3.3,3.4C162.8,301.7,196.4,301.7,230.1,301.7z"/>
	<path d="M802.6,257.3c-0.7,1-1.4,1.9-2.1,2.9c-6.3,8.6-14.6,14.3-25.3,16c-12.9,2.1-25.2,0.4-36-7.8c-8.1-6.2-13.1-14.6-15.9-24.2
		c-2.7-9.5-3.3-19.2-2.6-29c0.5-6.6,1.7-13,4-19.2c1.9-5.1,4.6-9.8,8.2-14c7.1-8.5,16.2-13.2,27.2-14.5c5.9-0.7,11.7-0.5,17.4,0.8
		c10,2.3,17.6,8,23.4,16.4c0.5,0.7,1,1.4,1.6,2.3c0.5-0.8,0.3-1.5,0.3-2.1c0-4.3,0-8.6,0-13c0-2.1,0-2.1,2.1-2.1c2.9,0,5.8,0,8.6,0
		c1,0,1.5,0.4,1.4,1.4c0,0.5,0,1,0,1.4c0,32,0,64,0,96c0,6.8-0.7,13.6-2.9,20.1c-4,12.2-11.9,20.5-24,24.6
		c-13.3,4.5-26.8,4.9-40.4,1c-7.4-2.1-13.7-6-18.4-12.3c-3.2-4.2-4.8-9-5.5-14.1c-0.2-1.7-0.1-1.8,1.6-1.8c3.1,0,6.2,0,9.4,0
		c0.9,0,1.5,0.1,1.6,1.2c1.8,10.1,8.5,15.2,17.9,17.3c9,2,18,1.7,26.8-1c12-3.6,18.6-12.1,20.9-24.2c0.8-4,1-8.1,0.9-12.2
		c0-3.3,0-6.6,0-9.8C802.9,257.4,802.7,257.4,802.6,257.3z M803.9,221.4c-0.1-1.9-0.2-4.4-0.4-6.8c-0.6-6.3-1.9-12.5-4.7-18.2
		c-4.3-8.7-10.9-14.7-20.4-17.1c-6.1-1.5-12.3-1.6-18.5-0.2c-7.4,1.6-13.4,5.4-17.9,11.5c-2.2,3-3.9,6.4-5.1,10
		c-1.9,5.4-2.7,11-3,16.7c-0.5,7.8,0.1,15.5,2.1,23c0.8,3.1,2,6.1,3.6,8.9c6.8,12.4,17.5,17.7,31.4,17c7.9-0.4,14.9-2.8,20.7-8.2
		c4-3.7,6.8-8.3,8.7-13.3C803,237.3,803.7,229.7,803.9,221.4z"/>
	<path d="M462.2,185.8c1-0.6,1.2-1.3,1.6-1.9c8.8-13,21.1-18.2,36.6-16.6c3.6,0.4,7.1,1.2,10.4,2.8c6.5,3,11,7.9,13.4,14.6
		c0.2,0.6,0.4,1.2,0.7,1.9c0.9-0.4,1.2-1.3,1.6-2c5.6-9,13.5-14.8,24-16.8c7.8-1.5,15.5-1,23,1.4c9.5,3.1,15.1,9.8,17.5,19.4
		c1,3.9,1.4,7.9,1.4,11.9c0,23.8,0,47.5,0,71.3c0,0.4,0,0.8,0,1.2c0,0.7-0.2,1.1-0.9,1.1c-3.5,0-7,0-10.6,0c-0.7,0-1-0.4-1-1.1
		c0-0.7,0-1.4,0-2.2c0-23,0-46.1,0-69.1c0-4.2-0.5-8.3-1.8-12.3c-1.8-5.4-5.5-9-11-10.4c-7.4-1.9-14.8-1.7-21.9,1.2
		c-10.2,4.3-15.6,12.3-17.1,23.1c-0.3,2.4-0.4,4.8-0.4,7.2c0,20,0,40,0,60c0,0.6-0.1,1.3,0,1.9c0.1,1.3-0.5,1.6-1.7,1.6
		c-3-0.1-5.9-0.1-8.9,0c-1.3,0-1.7-0.5-1.6-1.7c0.1-0.6,0-1.3,0-1.9c0-21.6,0-43.2,0-64.8c0-3.7-0.2-7.4-0.8-11
		c-1.8-10.1-7.8-15.6-18-16.5c-4.2-0.4-8.3-0.1-12.4,1.1c-11.4,3.4-18.1,11.2-20.5,22.8c-0.7,3.3-0.7,6.7-0.7,10c0,19.7,0,39.4,0,59
		c0,3.5,0.1,2.9-3,2.9c-2.6,0-5.1,0-7.7,0c-1.3,0-1.7-0.5-1.6-1.7c0-0.5,0-1,0-1.4c0-32.7,0-65.4,0-98.2c0-3.3-0.5-3,3.1-3
		c2.2,0,4.3,0,6.5,0c1.8,0,1.9,0.1,1.9,1.9c0,3.8,0,7.7,0,11.5C462.2,184,462.2,184.8,462.2,185.8z"/>
	<path d="M685.7,259.6c-1,0.4-1.5,1.2-2.1,1.8c-7.4,7.2-15.9,12.4-26.1,14.3c-9.1,1.7-18.2,1.7-26.9-2.1
		c-11.4-4.9-17.4-13.6-17.8-26.1c-0.2-7,1.4-13.5,5.8-19.1c4-5,9.3-8.2,15.4-10c6.2-1.8,12.5-2.7,18.8-3.4
		c5.1-0.6,10.2-0.6,15.3-1.4c2.5-0.4,5-1,7.4-1.9c1.7-0.6,3.4-1.4,4.9-2.5c2.9-2.1,4.6-4.9,4.6-8.5c0-3.5-0.3-7-1.4-10.4
		c-1.6-4.8-4.7-8.1-9.4-9.9c-3-1.2-6.1-1.8-9.3-2.1c-6.5-0.6-12.9-0.4-19.2,1.6c-9.4,2.9-14.5,9.4-15.6,19.1c-0.2,2-0.2,2-2.3,2
		c-2.7,0-5.4,0-8.2,0c-1.7,0-1.8,0-1.7-1.7c0.6-11.7,6-20.5,16.1-26.4c4.8-2.8,10.1-4.4,15.6-5.2c8.7-1.2,17.4-1,25.9,1.3
		c1.8,0.5,3.5,1.1,5.2,1.8c10,4.4,15.3,12.2,16.5,22.9c0.3,2.3,0.3,4.6,0.3,6.9c0,18.1,0,36.1,0,54.2c0,1.6,0,3.2,0.2,4.8
		c0.4,3.5,1.7,4.8,5.2,5.1c1.6,0.1,3.2,0.1,4.8,0c1.1,0,1.7,0.2,1.6,1.4c-0.1,2.2,0,4.3,0,6.5c0,0.8-0.2,1.3-1.1,1.5
		c-4.5,0.8-9,1.3-13.5,0c-5.3-1.5-8.4-5.4-8.9-11.2C685.8,262,685.8,260.9,685.7,259.6z M685,219.8c-0.8-0.1-1.4,0.1-2,0.3
		c-3.5,1-7.1,1.7-10.8,2.2c-5.9,0.7-11.8,1.2-17.7,1.5c-3.7,0.2-7.3,0.5-10.8,1.8c-4.4,1.7-8.7,3.7-12.2,7c-5.6,5.3-7.3,11.7-5.4,19
		c1.8,6.9,6.7,11.1,13.4,12.8c11.1,2.7,21.9,1.5,31.9-4.5c6.3-3.8,10.4-9.4,12.4-16.5c0.5-1.8,0.9-3.6,1-5.4
		C685.2,232,684.9,225.9,685,219.8z"/>
	<path d="M888.1,224.3c-11.9,0-23.8,0-35.8,0c-0.6,0-1.3,0-1.9,0c-0.9,0-1.3,0.4-1.3,1.3c0.2,11,2.4,21.5,9.8,30.2
		c5.6,6.6,12.8,10,21.3,10.5c4.9,0.3,9.7-0.1,14.4-1.7c9.8-3.5,16-10.3,18.3-20.5c0.5-2.1,0.5-2.2,2.6-2.2c2.6,0,5.3,0,7.9,0
		c2.1,0,2.3,0.1,1.9,2.1c-1.1,6.2-3.3,12-7.3,17c-5.1,6.5-11.6,10.9-19.4,13.4c-9.1,2.9-18.4,3.3-27.7,1.3
		c-13.1-2.8-22.2-10.7-28.1-22.6c-3.3-6.6-4.9-13.7-5.6-21c-0.9-8.7-0.7-17.4,0.9-26c1.5-8.4,4.4-16.2,9.6-23
		c5.8-7.7,13.4-12.6,22.9-14.8c7.8-1.8,15.6-1.9,23.3-0.2c12.2,2.6,21,9.8,26.7,20.7c3.2,6.2,4.9,12.8,5.8,19.7
		c0.6,4.2,0.7,8.4,0.6,12.7c0,3.3,0.3,3-2.9,3c-7.5,0-15,0-22.6,0C897.1,224.3,892.6,224.3,888.1,224.3z M881.9,214.6
		C881.9,214.6,881.9,214.6,881.9,214.6c10.2,0,20.5,0,30.7,0c1.9,0,1.9,0,1.8-1.9c-0.5-6.2-1.7-12.2-4.5-17.8
		c-5.3-10.5-13.6-16.5-25.5-17.1c-7.6-0.4-14.6,1.2-20.8,5.9c-6,4.6-9.8,10.7-12,17.8c-1.2,3.8-1.9,7.7-2.1,11.8
		c0,0.9,0.2,1.4,1.2,1.3c0.6,0,1.1,0,1.7,0C862.2,214.6,872,214.6,881.9,214.6z"/>
	<path d="M960.3,185.1c0.8-0.3,1-1,1.4-1.6c7.9-11,18.7-16.4,32.2-16.5c6.4-0.1,12.6,0.8,18.5,3.4c10.4,4.6,16.4,12.4,17.3,23.9
		c0.3,3.6,0.4,7.2,0.4,10.8c0,21.9,0,43.8,0,65.8c0,0.6,0,1.3,0,1.9c0,0.9-0.3,1.3-1.3,1.3c-3.4,0-6.7,0-10.1,0
		c-1,0-1.3-0.4-1.2-1.3c0-0.6,0-1.3,0-1.9c0-20.5,0-41,0-61.4c0-5.1-0.4-10.2-1.4-15.3c-1.7-8.6-6.6-13.8-15.3-15.3
		c-6.1-1.1-12.3-1.2-18.3,0.4c-11.2,3.1-17.7,10.9-20.6,21.9c-1.1,4.3-1.3,8.7-1.3,13.1c0,18.5,0,37,0,55.4c0,0.6,0,1.1,0,1.7
		c0,3,0,2.6-2.6,2.6c-2.7,0-5.4-0.1-8.2,0c-1.3,0-1.8-0.4-1.7-1.6c0-0.5,0-1,0-1.4c0-32.7,0-65.4,0-98.2c0-3.4-0.2-3,3.1-3.1
		c2.2,0,4.3,0,6.5,0c2.2,0,2.3,0,2.3,2.2c0,3.8,0,7.5,0,11.3C960.1,183.9,959.9,184.5,960.3,185.1z"/>
	<path d="M406.6,201.8c0-23.1,0-46.2,0-69.3c0-3.2-0.3-2.9,2.8-2.9c3.1,0,6.2,0,9.4,0c1.7,0,1.7,0.1,1.7,1.8c0,0.4,0,0.8,0,1.2
		c0,46.1,0,92.3,0,138.4c0,3.3,0.4,3-2.9,3c-3,0-6.1,0-9.1,0c-1.8,0-1.8,0-1.8-1.9c0-0.6,0-1.1,0-1.7
		C406.6,247.6,406.6,224.7,406.6,201.8z"/>
	<path d="M195.2,180.7c-0.1-12.9,11-23.9,23.7-23.9c13-0.1,24,10.9,23.9,23.6c0,12.5-9.6,23.8-23.7,23.9
		C205.5,204.4,195.5,193.5,195.2,180.7z M228.7,180.5c0.2-4.1-3.8-9.7-9.6-9.6c-6,0-9.8,5.8-9.7,9.9c0.2,5.2,4.6,9.4,9.8,9.4
		C224.5,190.1,228.7,185.8,228.7,180.5z"/>
</g>
</svg>
