<?xml version="1.0" encoding="utf-8"?>
<!-- Generator: Adobe Illustrator 19.2.1, SVG Export Plug-In . SVG Version: 6.00 Build 0)  -->
<svg version="1.1" id="Layer_1" xmlns="http://www.w3.org/2000/svg" xmlns:xlink="http://www.w3.org/1999/xlink" x="0px" y="0px"
	 viewBox="0 0 952.3 427" style="enable-background:new 0 0 952.3 427;" xml:space="preserve">
<g>
	<path d="M117.5,231.8c0-24.8,0-49.6,0-74.4c0-2.4,0.4-4.5,2.1-6.4c1.6-1.7,3.5-2.5,5.7-2.7c0.6-0.1,1.3,0,1.9,0
		c49.2,0,98.4,0,147.6,0c1.7,0,3.3,0.1,4.9,0.8c2.6,1.3,4.4,3.2,4.6,6.2c0.1,1.1,0.1,2.2,0.1,3.4c0,48.9,0,97.7,0,146.6
		c0,0.7,0,1.4,0,2.2c-0.3,5-3.3,7.9-8.3,7.9c-13.7,0-27.4,0-41,0c-36.2,0-72.5,0-108.7,0c-2.6,0-4.9-0.6-6.7-2.6
		c-1.4-1.6-2.2-3.4-2.2-5.7c0.1-7.1,0-14.2,0-21.4C117.5,267.8,117.5,249.8,117.5,231.8z M201.1,164.6c-21.4,0-42.7,0-64.1,0
		c-0.7,0-1.4,0-2.2,0c-0.9,0-1.3,0.4-1.3,1.3c0,0.5,0,1,0,1.4c0,43,0,86,0,129.1c0,3.1-0.1,2.8,2.9,2.8c42.9,0,85.9,0,128.8,0
		c0.6,0,1.1,0,1.7,0c0.9,0,1.3-0.4,1.3-1.3c0-0.5,0-1,0-1.4c0-43,0-86,0-129.1c0-3,0.2-2.8-2.9-2.8
		C244,164.6,222.6,164.6,201.1,164.6z"/>
	<path d="M235.3,113.1c24.7,0,49.4,0,74.2,0c2.5,0,4.8,0.4,6.7,2.1c1.7,1.5,2.4,3.5,2.6,5.7c0.1,0.7,0,1.4,0,2.2
		c0,49,0,98.1,0,147.1c0,1.4,0,2.9-0.5,4.3c-1.2,3.5-3.7,5.5-7.3,5.6c-5.6,0.2-11.2,0.2-16.8,0c-3.5-0.1-6.6-2.4-7.4-5.5
		c-0.9-3.3-0.3-6.4,2.4-8.7c1.5-1.3,3.2-2,5.2-2c2.2,0,4.3,0,6.5,0c1.1,0,1.6-0.4,1.6-1.5c0-0.6,0-1.3,0-1.9c0-42.6,0-85.3,0-127.9
		c0-3.8,0.3-3.4-3.3-3.4c-42.6,0-85.3,0-127.9,0c-0.3,0-0.6,0-1,0c-2.3,0-2.3,0-2.4,2.4c0,2.2,0,4.3,0,6.5c-0.1,3.9-2.8,7.1-6.5,8
		c-3.5,0.8-7.2-1-9-4.5c-0.5-1-0.7-2.1-0.7-3.2c0-5.8,0.1-11.5,0-17.3c-0.1-3.5,3.1-7.8,7.8-7.8c0.9,0,1.8,0,2.6,0
		C186.5,113.1,210.9,113.1,235.3,113.1z"/>
	<path d="M675.5,257.5c-0.5,0.8-1.1,1.5-1.6,2.3c-6.4,8.8-14.7,14.7-25.5,16.4c-13.5,2.1-26.2,0.2-37.1-8.7
		c-7.8-6.3-12.4-14.7-15-24.3c-2.8-10.2-3.1-20.5-2.1-30.9c0.7-7.5,2.6-14.8,6.1-21.5c6.1-11.7,15.3-19.6,28.3-22.5
		c7.8-1.8,15.7-1.8,23.5,0.3c9.1,2.4,16.2,7.8,21.6,15.4c0.6,0.9,1.3,1.8,2,2.9c0.4-0.8,0.3-1.4,0.3-2c0-4.5,0-9,0-13.4
		c0-1.3,0.5-1.7,1.7-1.7c3,0,6.1,0,9.1,0c1.1,0,1.7,0.3,1.6,1.5c0,0.5,0,1,0,1.4c0,31.8,0,63.7,0,95.5c0,6.9-0.7,13.7-2.8,20.3
		c-3.9,12.1-11.9,20.6-23.9,24.7c-13.4,4.5-27,4.9-40.6,1.1c-7.1-2-13.2-5.8-17.8-11.6c-3.5-4.4-5.4-9.5-6.1-15.1
		c-0.1-1.2,0.3-1.5,1.4-1.5c3.2,0,6.4,0.1,9.6,0c1.1,0,1.5,0.5,1.7,1.5c1.3,7.9,6.2,12.9,13.5,15.8c3.4,1.3,6.9,2,10.5,2.2
		c6.7,0.5,13.3,0.1,19.7-1.7c11.8-3.3,18.8-11.2,21.5-23.1c0.7-3.2,1.1-6.5,1.1-9.7c0-4.5,0-8.9,0-13.4
		C675.8,257.6,675.7,257.6,675.5,257.5z M606.7,222.4c-0.1,2.8,0.1,6.1,0.5,9.5c0.8,6,2.3,11.7,5.2,17.1
		c4.2,7.7,10.2,13.2,18.7,15.8c3.9,1.2,7.8,1.4,11.9,1.3c9.4-0.2,17.5-3.4,23.8-10.6c4.1-4.7,6.6-10.2,8.1-16.1
		c2.3-9.3,2.5-18.7,1.3-28.1c-0.6-5.1-1.9-10-4.2-14.7c-4-8.3-10.1-14.3-19.1-17c-6.2-1.9-12.6-2-19-0.9c-6.8,1.2-12.6,4.3-17.2,9.6
		c-2.9,3.4-5.1,7.2-6.6,11.3C607.5,206.9,606.6,214.3,606.7,222.4z"/>
	<path d="M378.9,201.6c0-23,0-46.1,0-69.1c0-3.4,0-2.9,2.8-2.9c16.6,0,33.1,0,49.7,0c7.2,0,14.3,0.9,21.2,3.3
		c13.1,4.5,21,13.6,23.4,27.3c1.2,6.8,1.2,13.7-0.1,20.5c-2.6,13.4-10.6,22-23.3,26.6c-6.1,2.2-12.3,3.3-18.7,3.9
		c-9,0.8-18.1,0.3-27.1,0.4c-4.2,0.1-8.5,0-12.7,0c-1.2,0-1.8,0.3-1.7,1.6c0.1,0.6,0,1.3,0,1.9c0,18.6,0,37.3,0,55.9
		c0,3.6,0,2.9-3,3c-3,0-5.9,0-8.9,0c-1.3,0-1.8-0.4-1.7-1.6c0-0.6,0-1.3,0-1.9C378.9,247.6,378.9,224.6,378.9,201.6z M414.1,141.6
		C414.1,141.6,414.1,141.6,414.1,141.6c-2.6,0-5.3,0-7.9,0c-4,0-8,0-12,0c-1.7,0-1.7,0-1.7,1.7c0,0.3,0,0.6,0,1c0,17.5,0,35,0,52.5
		c0,0.5,0,1,0,1.4c0,0.9,0.4,1.3,1.3,1.3c0.9,0,1.8,0,2.6,0c11.2-0.1,22.4,0.2,33.6-0.3c6.5-0.3,12.9-1.3,18.9-3.9
		c6.7-2.9,11-8,12.9-15.1c1.4-5.2,1.6-10.6,0.9-15.9c-1.3-10.2-6.6-17.2-16.7-20.4c-4.9-1.6-10-2.2-15.1-2.3
		C425.3,141.6,419.7,141.6,414.1,141.6z"/>
	<path d="M782.3,259.5c-2.7,2.6-5.1,4.9-7.8,7c-13.1,9.8-27.6,12.5-43.3,8.5c-8.2-2.1-14.6-6.9-18.4-14.6
		c-4.3-8.7-4.4-17.6-0.6-26.5c3.1-7.2,8.9-11.8,16.1-14.6c5.6-2.1,11.6-3.1,17.5-3.9c5.5-0.7,11-1,16.5-1.6
		c4.7-0.4,9.3-1.4,13.5-3.8c2.9-1.6,5.4-3.8,5.9-7.2c0.9-6.4,0.1-12.6-4-18c-2.2-2.9-5.4-4.6-8.8-5.4c-8.9-2.2-17.8-2.3-26.5,0.4
		c-8.8,2.7-13.9,8.8-15.1,17.9c-0.4,3.1-0.4,3.1-3.6,3.1c-2.3,0-4.6,0-7,0c-1.9,0-1.9-0.1-1.8-1.9c0.5-7.7,3.1-14.7,8.5-20.3
		c4.6-4.7,10.1-7.9,16.3-9.6c11.4-3.1,22.7-3,34.1,0.2c2.1,0.6,4.1,1.4,6,2.4c8.2,4.4,12.8,11.3,14.2,20.4c0.4,2.5,0.5,4.9,0.5,7.4
		c0,18.6,0,37.1,0,55.7c0,1.8,0.1,3.7,0.4,5.5c0.4,2.2,1.6,3.4,3.7,3.8c1.9,0.4,3.8,0.3,5.7,0.3c1.9,0,2,0,2,2c0,1.8,0,3.7,0,5.5
		c0,1.2-0.3,1.8-1.5,2c-4.1,0.6-8.3,1-12.4,0.1c-5.3-1.1-8.7-4.8-9.5-10.1C782.6,262.9,782.5,261.4,782.3,259.5z M781.8,229.3
		c0-3.2,0-5.6,0-8c0-1.7-0.1-1.7-1.8-1.3c-1.7,0.4-3.4,0.9-5.1,1.3c-7.3,1.5-14.7,1.9-22.1,2.4c-2.5,0.2-5,0-7.4,0.6
		c-6.1,1.5-11.9,3.8-16.7,8c-5.7,5-7.5,11.4-5.8,18.7c1.6,7.3,6.6,11.6,13.6,13.4c8.9,2.4,17.8,1.6,26.3-1.8
		c10.3-4.1,16.6-11.6,18.6-22.6C781.9,236.2,781.8,232.4,781.8,229.3z"/>
	<path d="M575.9,242.3c-1.1,9-4.7,16.8-11.4,23.1c-6.9,6.5-15.3,10-24.7,11.1c-6.9,0.8-13.7,0.6-20.5-1.2
		c-12.3-3.3-20.8-11.1-26.3-22.4c-3-6.2-4.6-12.9-5.4-19.8c-0.9-8.5-0.8-17.1,0.5-25.6c1.6-9.8,4.9-18.8,11.5-26.5
		c6.9-8,15.7-12.3,26.1-13.6c6.9-0.9,13.7-0.6,20.5,1.2c12.8,3.5,21.3,11.9,26.4,23.9c2.5,5.9,3.8,12.2,4.4,18.6
		c0.4,3.7,0.5,7.5,0.4,11.3c0,1.8,0,1.8-1.9,1.9c-0.6,0-1.3,0-1.9,0c-23.3,0-46.5,0-69.8,0c-4.3,0-4.3,0-4.1,4.4
		c0.3,6.6,1.5,13,4.4,19c4.5,9.4,11.5,15.9,22,18c6.7,1.4,13.4,1.1,19.8-1.4c9.3-3.6,15.2-10.3,17.4-20.1c0.5-2.2,0.5-2.2,2.7-2.2
		c2.6,0,5.1,0,7.7,0C574.4,242,575.1,241.8,575.9,242.3z M532.1,214.6C532.1,214.6,532.1,214.6,532.1,214.6c10.1,0,20.3,0,30.4,0
		c2.1,0,2.1,0,2-2.1c-0.3-5.3-1.3-10.5-3.4-15.4c-5-11.7-13.5-18.6-26.5-19.2c-8.2-0.4-15.7,1.4-22.1,6.9
		c-8.7,7.5-11.9,17.5-12.9,28.5c-0.1,0.9,0.2,1.3,1.2,1.3c0.6,0,1.1,0,1.7,0C512.5,214.6,522.3,214.6,532.1,214.6z"/>
	<path d="M834.5,186.2c0.6-0.4,0.8-1.1,1.1-1.7c6.5-12.1,16.8-17.4,30.3-17.4c1.7,0,1.7,0,1.8,1.7c0,3,0,6.1,0,9.1c0,2,0,2-2,2
		c-3.6,0-7.2,0.4-10.7,1.4c-7.4,2.1-12.8,6.7-16.1,13.7c-2.1,4.5-3.2,9.4-3.7,14.3c-0.3,3.1-0.4,6.2-0.4,9.3c0,17.3,0,34.5,0,51.8
		c0,0.6,0,1.3,0,1.9c0.1,1.3-0.5,1.6-1.7,1.6c-3.1-0.1-6.2-0.1-9.4,0c-1.3,0-1.7-0.5-1.6-1.7c0-0.5,0-1,0-1.4c0-32.7,0-65.4,0-98.1
		c0-3.3-0.5-3,3.1-3c2.4,0,4.8,0,7.2,0c1.2,0,1.7,0.4,1.7,1.7c-0.1,4.5,0,9,0,13.4C834.2,185.3,834,185.8,834.5,186.2z"/>
</g>
</svg>
