<?xml version="1.0" encoding="utf-8"?>
<!-- Generator: Adobe Illustrator 19.2.1, SVG Export Plug-In . SVG Version: 6.00 Build 0)  -->
<svg version="1.1" id="Layer_1" xmlns="http://www.w3.org/2000/svg" xmlns:xlink="http://www.w3.org/1999/xlink" x="0px" y="0px"
	 viewBox="0 0 353.6 342.6" style="enable-background:new 0 0 353.6 342.6;" xml:space="preserve">
<style type="text/css">
	.st0{fill:#234093;}
	.st1{fill:#E5A324;stroke:#E5A324;stroke-width:2;stroke-miterlimit:10;}
	.st2{fill:#E5A324;}
	.st3{fill:#FFFFFF;}
	.st4{fill:none;stroke:#E5A324;stroke-width:4;stroke-miterlimit:10;}
	.st5{fill:#E5A324;stroke:#E5A324;stroke-width:4;stroke-miterlimit:10;}
	.st6{fill:#FFFFFF;stroke:#E5A324;stroke-width:4;stroke-miterlimit:10;}
	.st7{fill:none;stroke:#FFFFFF;stroke-width:4;stroke-miterlimit:10;}
	.st8{fill:#FDFDFD;}
	.st9{fill:#E4A224;}
	.st10{fill:#FEFEFE;}
	.st11{fill:#FDFBF7;}
	.st12{fill:#FEFCFA;}
	.st13{fill:#FDFBF8;}
	.st14{fill:#FFFFFF;stroke:#FFFFFF;stroke-width:3;stroke-miterlimit:10;}
	.st15{fill:#E5A324;stroke:#000000;stroke-width:3;stroke-miterlimit:10;}
</style>
<g>
	<path class="st3" d="M105,233.6h3.3V257H105V233.6z M106.7,244.8h7.5c0.7,0,1.3-0.2,1.9-0.5c0.5-0.3,1-0.8,1.2-1.4
		c0.3-0.6,0.4-1.3,0.4-2.1c0-0.8-0.1-1.5-0.4-2.1c-0.3-0.6-0.7-1.1-1.2-1.4c-0.5-0.3-1.2-0.5-1.9-0.5h-7.5v-3.1h7.4
		c1.4,0,2.6,0.3,3.7,0.9c1.1,0.6,1.9,1.4,2.5,2.5c0.6,1.1,0.9,2.3,0.9,3.8c0,1.4-0.3,2.7-0.9,3.7c-0.6,1.1-1.4,1.9-2.5,2.5
		s-2.3,0.9-3.7,0.9h-7.4V244.8z"/>
	<path class="st3" d="M124.3,240.3h3.3V257h-3.3V240.3z M132.4,243.5c-0.4-0.2-0.9-0.3-1.5-0.3c-1,0-1.8,0.3-2.4,0.9
		c-0.6,0.6-0.9,1.4-0.9,2.4l-0.3-3.2c0.5-1,1.2-1.8,2-2.3s1.7-0.8,2.7-0.8c0.8,0,1.4,0.1,2.1,0.3s1.2,0.5,1.6,1l-2.1,2.9
		C133.2,243.9,132.9,243.7,132.4,243.5z"/>
	<path class="st3" d="M140.7,256.4c-1-0.6-1.8-1.4-2.4-2.5c-0.5-1.1-0.8-2.4-0.8-3.9v-2.7c0-1.5,0.3-2.8,0.8-3.9
		c0.5-1.1,1.3-1.9,2.4-2.5c1-0.6,2.3-0.8,3.7-0.8c1.4,0,2.7,0.3,3.7,0.8s1.8,1.4,2.4,2.5c0.5,1.1,0.8,2.4,0.8,3.9v2.8
		c0,1.5-0.3,2.8-0.8,3.9c-0.5,1.1-1.3,1.9-2.4,2.5c-1,0.6-2.3,0.9-3.7,0.9C143,257.2,141.8,256.9,140.7,256.4z M147.1,253
		c0.6-0.7,0.9-1.7,0.9-3v-2.8c0-1.3-0.3-2.3-0.9-3s-1.5-1.1-2.7-1.1s-2,0.4-2.7,1.1s-0.9,1.7-0.9,3v2.8c0,1.3,0.3,2.3,0.9,3
		s1.5,1.1,2.7,1.1S146.5,253.8,147.1,253z"/>
	<path class="st3" d="M158.1,256.5c-0.9-0.5-1.5-1.3-2-2.3s-0.7-2.2-0.7-3.7v-3.7c0-1.4,0.2-2.7,0.7-3.7c0.4-1,1.1-1.8,1.9-2.3
		c0.8-0.5,1.8-0.8,3-0.8c1,0,1.9,0.3,2.7,0.8c0.8,0.5,1.5,1.2,2,2.2l-0.3,3.4c0-0.7-0.1-1.3-0.4-1.8c-0.3-0.5-0.6-0.9-1.1-1.1
		c-0.5-0.3-1.1-0.4-1.8-0.4c-1.1,0-1.9,0.3-2.5,1s-0.9,1.6-0.9,2.8v3.6c0,1.2,0.3,2.1,0.9,2.8c0.6,0.7,1.4,1,2.5,1
		c0.7,0,1.3-0.1,1.8-0.4c0.5-0.3,0.9-0.7,1.1-1.2c0.3-0.5,0.4-1.1,0.4-1.8l0.2,3.5c-0.3,0.8-0.9,1.5-1.6,2.1
		c-0.8,0.6-1.7,0.8-2.8,0.8C160,257.3,159,257,158.1,256.5z M165.4,233.6h3.3V257h-3.3V233.6z"/>
	<path class="st3" d="M177,250.5c0,1.2,0.3,2.1,0.9,2.7s1.4,1,2.5,1c1.1,0,1.9-0.3,2.5-0.9c0.6-0.6,0.9-1.4,0.9-2.4l0.2,3.5
		c-0.3,0.8-0.9,1.5-1.7,2.1c-0.8,0.6-1.7,0.8-2.8,0.8c-1.8,0-3.3-0.6-4.3-1.8s-1.5-2.9-1.5-5v-10.1h3.3V250.5z M183.7,240.3h3.3V257
		h-3.3V240.3z"/>
	<path class="st3" d="M196.4,257.2c0,0-0.5-0.3-1.6-0.9c-1.1-0.6-1.9-1.4-2.5-2.5s-0.9-2.4-0.9-3.9v-2.7c0-1.5,0.3-2.8,0.9-3.9
		s1.4-1.9,2.5-2.4c1.1-0.6,2.4-0.8,3.9-0.8c0.9,0,1.7,0.1,2.4,0.3c0.8,0.2,1.5,0.5,2.1,0.9c0.6,0.4,1.1,0.9,1.5,1.4l-2.4,2.1
		c-0.5-0.5-1-0.9-1.7-1.2s-1.3-0.4-2-0.4c-1.3,0-2.2,0.4-2.9,1.1c-0.7,0.7-1,1.7-1,3v2.7c0,1.3,0.3,2.3,1,3.1s1.7,1.1,2.9,1.1
		c0.7,0,1.4-0.2,2-0.5c0.6-0.3,1.2-0.7,1.6-1.3l2.4,2.3c-0.4,0.6-0.9,1-1.5,1.4c-0.6,0.4-1.3,0.7-2.1,0.9c-0.8,0.2-1.6,0.3-2.4,0.3
		C197.2,257.2,196.4,257.2,196.4,257.2z"/>
	<path class="st3" d="M207.1,240.3h7.5v3h-7.5V240.3z M209.7,256c-0.6-0.7-0.9-1.8-0.9-3.3v-17.2h3.3v17.2c0,0.4,0.1,0.7,0.2,0.9
		c0.2,0.2,0.4,0.3,0.7,0.3h1.6v3.1h-1.9C211.4,257.1,210.4,256.7,209.7,256z"/>
	<path class="st3" d="M221.8,256.4c-1-0.6-1.8-1.4-2.4-2.5c-0.5-1.1-0.8-2.4-0.8-3.9v-2.7c0-1.5,0.3-2.8,0.8-3.9
		c0.5-1.1,1.3-1.9,2.4-2.5c1-0.6,2.3-0.8,3.7-0.8c1.4,0,2.7,0.3,3.7,0.8s1.8,1.4,2.4,2.5c0.5,1.1,0.8,2.4,0.8,3.9v2.8
		c0,1.5-0.3,2.8-0.8,3.9c-0.5,1.1-1.3,1.9-2.4,2.5c-1,0.6-2.3,0.9-3.7,0.9C224,257.2,222.8,256.9,221.8,256.4z M228.1,253
		c0.6-0.7,0.9-1.7,0.9-3v-2.8c0-1.3-0.3-2.3-0.9-3s-1.5-1.1-2.7-1.1s-2,0.4-2.7,1.1s-0.9,1.7-0.9,3v2.8c0,1.3,0.3,2.3,0.9,3
		s1.5,1.1,2.7,1.1S227.5,253.8,228.1,253z"/>
	<path class="st3" d="M241.4,257.2c0,0-0.4-0.1-1.3-0.3c-0.9-0.2-1.7-0.5-2.4-0.9s-1.4-0.9-2.1-1.4l1.9-2.4c0.9,0.7,1.8,1.2,2.7,1.5
		c0.9,0.3,1.8,0.5,2.6,0.5c1.3,0,2.3-0.2,2.9-0.6c0.6-0.4,1-1,1-1.8c0-0.5-0.2-0.9-0.5-1.2s-0.8-0.4-1.3-0.5
		c-0.5-0.1-1.3-0.2-2.2-0.2c-0.1,0-0.2,0-0.3,0c-0.1,0-0.2,0-0.3,0c0,0-0.1,0-0.1,0s-0.1,0-0.1,0c-1.1-0.1-2-0.2-2.7-0.5
		c-0.7-0.2-1.4-0.7-1.9-1.3c-0.5-0.6-0.7-1.5-0.7-2.7c0-1.2,0.2-2.2,0.7-2.9c0.5-0.8,1.2-1.4,2.2-1.8c1-0.4,2.1-0.6,3.6-0.6
		c0.9,0,1.7,0.1,2.5,0.2c0.8,0.2,1.5,0.4,2.3,0.7c0.7,0.3,1.4,0.7,2.1,1.2l-2,2.4c-0.8-0.5-1.7-0.9-2.5-1.2
		c-0.8-0.3-1.6-0.4-2.4-0.4c-1.1,0-1.9,0.2-2.5,0.6c-0.6,0.4-0.8,1-0.8,1.7c0,0.4,0.2,0.8,0.5,1c0.3,0.2,0.7,0.4,1.2,0.4
		s1.2,0.1,2.1,0.2c0.1,0,0.1,0,0.2,0c0.1,0,0.1,0,0.2,0c0,0,0.1,0,0.1,0s0.1,0,0.1,0c1.2,0.1,2.2,0.2,3,0.5c0.8,0.2,1.5,0.7,2.1,1.4
		c0.6,0.7,0.8,1.7,0.8,3c0,1.2-0.3,2.2-0.8,3s-1.3,1.4-2.3,1.8c-1,0.4-2.3,0.6-3.9,0.6C241.9,257.2,241.4,257.2,241.4,257.2z"/>
</g>
<g>
	<rect x="162.2" y="68.2" class="st14" width="65.1" height="62.6"/>
	<path class="st15" d="M160.1,137.9c0.9-4.9,8.3-5.2,9.4-5.3c0.1,0,0.2,0,0.2,0l33.5,2c0,0,8.9,0.7,10.9-8.6
		c1.5-7-4.6-10.2-7.7-11.4c-0.8-0.3-1.7-0.5-2.6-0.6c-6.9-0.6-46-3.9-58.3-4.5c-11.9-0.6-19.7,7.5-21.4,9.5
		c-0.3,0.3-0.6,0.6-0.9,0.9l-32.7,29.5c-2.3,2.1-3.5,5.1-3.3,8.2c0.7,8.8,4.4,26.4,23.3,30.2c2.9,0.6,5.9-0.2,8.2-2.1l23.2-18.9
		c2.2-1.8,5.1-2.6,7.8-2.1l34.8,5.5c0.4,0.1,0.8,0.1,1.2,0.3c1.9,0.6,9,2.3,14.7-1.1c5.6-3.3,48.7-36.4,61.8-46.5
		c4.4-3.4,5.3-9.7,1.8-14c-0.3-0.4-0.6-0.7-1-1.1c-0.7-0.8-1.4-1.4-2.1-1.9c-3.4-2.7-8.1-2.7-11.7-0.3L214.8,129l-4.5,3.3
		c-0.8,0.6-1.6,1.2-2.5,1.5l0,0c-1.2,0.4-2.9,0.8-4.2,0.8l-21.6-1.3l-12.7-0.8c-1.7-0.1-2.9,0.4-4.8,0.9c-0.2,0-0.8,0.3-0.9,0.4
		l-0.6,0.4c-1,0.7-1.9,1.4-2.5,2.4L160.1,137.9z"/>
</g>
</svg>
